{"name":"factTest","id":"TestRunner:factTest","testCaseName":"TestRunner","testSteps":[{"number":1,"description":"Actor EXD74026 executes a GET on the resource /plans","duration":1353,"startTime":"2021-02-05T19:52:55.046-03:00[America/Buenos_Aires]","result":"SUCCESS","precondition":false,"level":0,"children":[{"number":2,"description":"GET https://reqres.in/api/plans\r","duration":1,"startTime":"2021-02-05T19:52:56.398-03:00[America/Buenos_Aires]","result":"SUCCESS","restQuery":{"method":"GET","path":"https://reqres.in/api/plans\r","content":"\r","contentType":"null","requestHeaders":"Accept\u003d*/*\r","requestCookies":"\r","responseHeaders":"Date: Fri, 05 Feb 2021 22:52:56 GMT\r\nContent-Type: application/json; charset\u003dutf-8\r\nTransfer-Encoding: chunked\r\nConnection: keep-alive\r\nSet-Cookie: __cfduid\u003dda1ac3dd8a7caf6d519737cd5b99b65a81612565576; expires\u003dSun, 07-Mar-21 22:52:56 GMT; path\u003d/; domain\u003d.reqres.in; HttpOnly; SameSite\u003dLax; Secure\r\nX-Powered-By: Express\r\nAccess-Control-Allow-Origin: *\r\nEtag: W/\"2c1-N6Rqerxquq2kgQhL51EiSg4x0R8\"\r\nVia: 1.1 vegur\r\nCache-Control: max-age\u003d14400\r\nCF-Cache-Status: MISS\r\ncf-request-id: 0815ff12780000e954193db000000001\r\nExpect-CT: max-age\u003d604800, report-uri\u003d\"https://report-uri.cloudflare.com/cdn-cgi/beacon/expect-ct\"\r\nReport-To: {\"max_age\":604800,\"endpoints\":[{\"url\":\"https:\\/\\/a.nel.cloudflare.com\\/report?s\u003dlml29F%2BJHmv4aIn%2F9NGoWx6q8YeUp0VwTM5k319JYRjz550WZZ3wixe9I4qvZXGn1YxuViDoMsJvA1XwMJme18FUCw8RlcSE6Y0%3D\"}],\"group\":\"cf-nel\"}\r\nNEL: {\"max_age\":604800,\"report_to\":\"cf-nel\"}\r\nVary: Accept-Encoding\r\nServer: cloudflare\r\nCF-RAY: 61d03463feabe954-MIA\r\nContent-Encoding: gzip\r","responseCookies":"__cfduid\u003dda1ac3dd8a7caf6d519737cd5b99b65a81612565576;Path\u003d/;Domain\u003d.reqres.in;Secure;HttpOnly;Expires\u003d07/03/21 22:52\r","responseBody":"{\n    \"page\": 1,\n    \"per_page\": 6,\n    \"total\": 12,\n    \"total_pages\": 2,\n    \"data\": [\n        {\n            \"id\": 1,\n            \"name\": \"cerulean\",\n            \"year\": 2000,\n            \"color\": \"#98B2D1\",\n            \"pantone_value\": \"15-4020\"\n        },\n        {\n            \"id\": 2,\n            \"name\": \"fuchsia rose\",\n            \"year\": 2001,\n            \"color\": \"#C74375\",\n            \"pantone_value\": \"17-2031\"\n        },\n        {\n            \"id\": 3,\n            \"name\": \"true red\",\n            \"year\": 2002,\n            \"color\": \"#BF1932\",\n            \"pantone_value\": \"19-1664\"\n        },\n        {\n            \"id\": 4,\n            \"name\": \"aqua sky\",\n            \"year\": 2003,\n            \"color\": \"#7BC4C4\",\n            \"pantone_value\": \"14-4811\"\n        },\n        {\n            \"id\": 5,\n            \"name\": \"tigerlily\",\n            \"year\": 2004,\n            \"color\": \"#E2583E\",\n            \"pantone_value\": \"17-1456\"\n        },\n        {\n            \"id\": 6,\n            \"name\": \"blue turquoise\",\n            \"year\": 2005,\n            \"color\": \"#53B0AE\",\n            \"pantone_value\": \"15-5217\"\n        }\n    ],\n    \"support\": {\n        \"url\": \"https://reqres.in/#support-heading\",\n        \"text\": \"To keep ReqRes free, contributions towards server costs are appreciated!\"\n    }\n}","statusCode":200},"precondition":false,"level":1}]},{"number":3,"description":"Then el codigo de respuesta should be (200)","duration":0,"startTime":"2021-02-05T19:52:56.832-03:00[America/Buenos_Aires]","result":"SUCCESS","precondition":false,"level":0}],"userStory":{"id":"TestRunner","storyName":"Test runner","storyClassName":"TestRunner","path":"","type":"story"},"featureTag":{"name":"Test runner","type":"story","displayName":"Test runner"},"title":"Fact test","tags":[{"name":"Test runner","type":"story","displayName":"Test runner"}],"startTime":"2021-02-05T19:52:55.017-03:00[America/Buenos_Aires]","duration":1815,"projectKey":"","isManualTestingUpToDate":false,"manual":false,"testSource":"JUnit","actors":[{"name":"Actor EXD74026","can":["call an API at https://reqres.in/api"],"has":["Los planes son: [{color\u003d#98B2D1, year\u003d2000, name\u003dcerulean, id\u003d1, pantone_value\u003d15-4020}, {color\u003d#C74375, year\u003d2001, name\u003dfuchsia rose, id\u003d2, pantone_value\u003d17-2031}, {color\u003d#BF1932, year\u003d2002, name\u003dtrue red, id\u003d3, pantone_value\u003d19-1664}, {color\u003d#7BC4C4, year\u003d2003, name\u003daqua sky, id\u003d4, pantone_value\u003d14-4811}, {color\u003d#E2583E, year\u003d2004, name\u003dtigerlily, id\u003d5, pantone_value\u003d17-1456}, {color\u003d#53B0AE, year\u003d2005, name\u003dblue turquoise, id\u003d6, pantone_value\u003d15-5217}]"]}],"order":0,"result":"SUCCESS"}