{"name":"initialTest","id":"TestRunner:initialTest","testCaseName":"TestRunner","testSteps":[{"number":1,"description":"Actor exd74026 get users task","duration":1022,"startTime":"2021-02-05T19:52:56.845-03:00[America/Buenos_Aires]","result":"SUCCESS","precondition":false,"level":0,"children":[{"number":2,"description":"Actor EXD74026 executes a GET on the resource /users?page\u003d1","duration":1018,"startTime":"2021-02-05T19:52:56.848-03:00[America/Buenos_Aires]","result":"SUCCESS","precondition":false,"level":1,"children":[{"number":3,"description":"GET https://reqres.in/api/users?page\u003d1\r","duration":0,"startTime":"2021-02-05T19:52:57.865-03:00[America/Buenos_Aires]","result":"SUCCESS","restQuery":{"method":"GET","path":"https://reqres.in/api/users?page\u003d1\r","content":"\r","contentType":"application/json","requestHeaders":"header1\u003dvalue1\r\n\t\t\t\tAccept\u003d*/*\r\n\t\t\t\tContent-Type\u003dapplication/json; charset\u003dUTF-8\r","requestCookies":"\r","responseHeaders":"Date: Fri, 05 Feb 2021 22:52:58 GMT\r\nContent-Type: application/json; charset\u003dutf-8\r\nTransfer-Encoding: chunked\r\nConnection: keep-alive\r\nSet-Cookie: __cfduid\u003ddd70430c036d6d92ceb9db6aeb57d5db11612565578; expires\u003dSun, 07-Mar-21 22:52:58 GMT; path\u003d/; domain\u003d.reqres.in; HttpOnly; SameSite\u003dLax; Secure\r\nX-Powered-By: Express\r\nAccess-Control-Allow-Origin: *\r\nEtag: W/\"3e4-2RLXvr5wTg9YQ6aH95CkYoFNuO8\"\r\nVia: 1.1 vegur\r\nCache-Control: max-age\u003d14400\r\nCF-Cache-Status: HIT\r\nAge: 5031\r\ncf-request-id: 0815ff195b000011a56c99e000000001\r\nExpect-CT: max-age\u003d604800, report-uri\u003d\"https://report-uri.cloudflare.com/cdn-cgi/beacon/expect-ct\"\r\nReport-To: {\"max_age\":604800,\"endpoints\":[{\"url\":\"https:\\/\\/a.nel.cloudflare.com\\/report?s\u003dAa7y1pvnJO8xsTpdF8cFtC9OGdDEk2mijVvYQPtc%2BPSw%2FOWXq0jU21uMAJSEHupjW3SeWAAgtuQWXfNJNkJtbSlrZSunYjDSVrQ%3D\"}],\"group\":\"cf-nel\"}\r\nNEL: {\"max_age\":604800,\"report_to\":\"cf-nel\"}\r\nVary: Accept-Encoding\r\nServer: cloudflare\r\nCF-RAY: 61d0346ef90711a5-MIA\r\nContent-Encoding: gzip\r","responseCookies":"__cfduid\u003ddd70430c036d6d92ceb9db6aeb57d5db11612565578;Path\u003d/;Domain\u003d.reqres.in;Secure;HttpOnly;Expires\u003d07/03/21 22:52\r","responseBody":"{\n    \"page\": 1,\n    \"per_page\": 6,\n    \"total\": 12,\n    \"total_pages\": 2,\n    \"data\": [\n        {\n            \"id\": 1,\n            \"email\": \"george.bluth@reqres.in\",\n            \"first_name\": \"George\",\n            \"last_name\": \"Bluth\",\n            \"avatar\": \"https://reqres.in/img/faces/1-image.jpg\"\n        },\n        {\n            \"id\": 2,\n            \"email\": \"janet.weaver@reqres.in\",\n            \"first_name\": \"Janet\",\n            \"last_name\": \"Weaver\",\n            \"avatar\": \"https://reqres.in/img/faces/2-image.jpg\"\n        },\n        {\n            \"id\": 3,\n            \"email\": \"emma.wong@reqres.in\",\n            \"first_name\": \"Emma\",\n            \"last_name\": \"Wong\",\n            \"avatar\": \"https://reqres.in/img/faces/3-image.jpg\"\n        },\n        {\n            \"id\": 4,\n            \"email\": \"eve.holt@reqres.in\",\n            \"first_name\": \"Eve\",\n            \"last_name\": \"Holt\",\n            \"avatar\": \"https://reqres.in/img/faces/4-image.jpg\"\n        },\n        {\n            \"id\": 5,\n            \"email\": \"charles.morris@reqres.in\",\n            \"first_name\": \"Charles\",\n            \"last_name\": \"Morris\",\n            \"avatar\": \"https://reqres.in/img/faces/5-image.jpg\"\n        },\n        {\n            \"id\": 6,\n            \"email\": \"tracey.ramos@reqres.in\",\n            \"first_name\": \"Tracey\",\n            \"last_name\": \"Ramos\",\n            \"avatar\": \"https://reqres.in/img/faces/6-image.jpg\"\n        }\n    ],\n    \"support\": {\n        \"url\": \"https://reqres.in/#support-heading\",\n        \"text\": \"To keep ReqRes free, contributions towards server costs are appreciated!\"\n    }\n}","statusCode":200},"precondition":false,"level":2}]}]},{"number":4,"description":"Then el codigo de respuesta should be (200)","duration":1,"startTime":"2021-02-05T19:52:57.871-03:00[America/Buenos_Aires]","result":"SUCCESS","precondition":false,"level":0},{"number":5,"description":"Then usuario no es nulo should be not null","duration":0,"startTime":"2021-02-05T19:52:57.952-03:00[America/Buenos_Aires]","result":"SUCCESS","precondition":false,"level":0},{"number":6,"description":"Then el email del usuario should be \u0027george.bluth@reqres.in\u0027","duration":1,"startTime":"2021-02-05T19:52:57.954-03:00[America/Buenos_Aires]","result":"SUCCESS","precondition":false,"level":0},{"number":7,"description":"Then el avatar del usuario should be \u0027https://s3.amazonaws.com/uifaces/faces/twitter/calebogden/128.jpg\u0027","duration":10,"startTime":"2021-02-05T19:52:57.956-03:00[America/Buenos_Aires]","exception":{"errorType":"java.lang.AssertionError","message":"\nExpected: \"https://s3.amazonaws.com/uifaces/faces/twitter/calebogden/128.jpg\"\n     but: was \"https://reqres.in/img/faces/1-image.jpg\"","stackTrace":[{"declaringClass":"TestRunner","methodName":"initialTest","fileName":"TestRunner.java","lineNumber":49}]},"result":"FAILURE","precondition":false,"level":0}],"userStory":{"id":"TestRunner","storyName":"Test runner","storyClassName":"TestRunner","path":"","type":"story"},"featureTag":{"name":"Test runner","type":"story","displayName":"Test runner"},"title":"Initial test","tags":[{"name":"Test runner","type":"story","displayName":"Test runner"}],"startTime":"2021-02-05T19:52:56.834-03:00[America/Buenos_Aires]","duration":1143,"testFailureCause":{"errorType":"java.lang.AssertionError","message":"\nExpected: \"https://s3.amazonaws.com/uifaces/faces/twitter/calebogden/128.jpg\"\n     but: was \"https://reqres.in/img/faces/1-image.jpg\"","stackTrace":[{"declaringClass":"TestRunner","methodName":"initialTest","fileName":"TestRunner.java","lineNumber":49}]},"testFailureClassname":"java.lang.AssertionError","testFailureMessage":"\nExpected: \"https://s3.amazonaws.com/uifaces/faces/twitter/calebogden/128.jpg\"\n     but: was \"https://reqres.in/img/faces/1-image.jpg\"","testFailureSummary":"FAILURE;java.lang.AssertionError;\nExpected: \"https://s3.amazonaws.com/uifaces/faces/twitter/calebogden/128.jpg\"\n     but: was \"https://reqres.in/img/faces/1-image.jpg\";TestRunner.java","projectKey":"","annotatedResult":"FAILURE","isManualTestingUpToDate":false,"manual":false,"testSource":"JUnit","actors":[{"name":"Actor EXD74026","can":["call an API at https://reqres.in/api"]}],"order":0,"result":"FAILURE"}